com/jogodavelha_v2/api_jogo/model/Rodada.class
com/jogodavelha_v2/api_jogo/service/Message.class
com/jogodavelha_v2/api_jogo/model/Tabuleiro.class
com/jogodavelha_v2/api_jogo/service/JogadorService.class
com/jogodavelha_v2/api_jogo/model/Jogada.class
com/jogodavelha_v2/api_jogo/model/Placar.class
com/jogodavelha_v2/api_jogo/controller/JogoController.class
com/jogodavelha_v2/api_jogo/App.class
com/jogodavelha_v2/api_jogo/model/Jogo.class
com/jogodavelha_v2/api_jogo/model/Jogador.class
com/jogodavelha_v2/api_jogo/model/Valor.class
